Place,Name,State,WeightClassKg,BodyweightKg,Age,Best3SquatKg,Best3BenchKg,Best3DeadliftKg,TotalKg,Sex,Division,Equipment,Event,Squat4Kg,Bench4Kg,Deadlift4Kg
1,Denise Juarez,CA,44,43.7,22,105,67.5,132.5,305,F,Junior 20-23,Raw,SBD,,70,
1,Juvainne Tutor,CA,52,50.4,23,117.5,52.5,127.5,297.5,F,Junior 20-23,Raw,SBD,,,
2,Patricia Mangibin,CA,52,51.9,23,107.5,47.5,120,275,F,Junior 20-23,Raw,SBD,,,
1,Katie Jones,CA,60,59.5,22,150,92.5,157.5,400,F,Junior 20-23,Raw,SBD,,,
2,Caitlyn Orne,NV,60,58.8,23,115,52.5,137.5,305,F,Junior 20-23,Raw,SBD,,,
1,Kylie Brewer,CA,67.5,67,21,150,92.5,160,402.5,F,Junior 20-23,Raw,SBD,,,
2,Karagan Osmann,CA,67.5,67.2,22,125,70,172.5,367.5,F,Junior 20-23,Raw,SBD,,,
3,Jessica Farlow,VA,67.5,66.1,22,125,60,160,345,F,Junior 20-23,Raw,SBD,,,
4,Daisy De La Rosa,TX,67.5,66.1,22,120,72.5,145,337.5,F,Junior 20-23,Raw,SBD,,,
DQ,Claire Zai,CO,67.5,66.1,23,125,75,,,F,Junior 20-23,Raw,SBD,,,
1,Alejandra Rice,WY,82.5,80,16,130,67.5,140,337.5,F,Junior 16-17,Raw,SBD,,,
G,Leah Micek,AZ,90+,91.1,21,160,80,172.5,412.5,F,Junior 20-23,Raw,SBD,,,
1,Denise Juarez,CA,44,43.7,22,105,67.5,132.5,305,F,Open,Raw,SBD,,70,
2,Rocky Luedeker,AZ,44,42.7,63,37.5,37.5,77.5,152.5,F,Open,Raw,SBD,,,
1,Maryam Rushdi,CA,48,47.6,26,102.5,50,147.5,300,F,Open,Raw,SBD,,,
2,Jamie Silver,MD,48,46.9,31,120,47.5,112.5,280,F,Open,Raw,SBD,,,
1,Yolaunda Campbell,CA,52,52,40,145,80,175,400,F,Open,Raw,SBD,,,
2,Judy Parra,AZ,52,51.1,30,112.5,65,142.5,320,F,Open,Raw,SBD,,,
3,Juvainne Tutor,CA,52,50.4,23,117.5,52.5,127.5,297.5,F,Open,Raw,SBD,,,
4,Bianca Luedeker,AZ,52,51.5,34,90,67.5,130,287.5,F,Open,Raw,SBD,,,
1,Kaila Fowler,AZ,56,55.8,24,132.5,57.5,155,345,F,Open,Raw,SBD,,,
2,Patti Coates,PA,56,54.9,48,117.5,57.5,145,320,F,Open,Raw,SBD,,,147.5
3,Precilla Navarro,AZ,56,55.9,35,120,60,122.5,302.5,F,Open,Raw,SBD,,,
4,Rachel Bitz,CA,56,55.5,26,105,62.5,127.5,295,F,Open,Raw,SBD,,,
1,Ayngelia Ara,WV,60,58.8,36,130,90,195,415,F,Open,Raw,SBD,,,
2,Katie Jones,CA,60,59.5,22,150,92.5,157.5,400,F,Open,Raw,SBD,,,
3,Desiree Reel,Guam,60,57.5,33,132.5,85,165,382.5,F,Open,Raw,SBD,,,
4,Stephanie Hanson,NJ,60,59.4,26,132.5,77.5,170,380,F,Open,Raw,SBD,,,
5,Carrie Althoff,NC,60,59,25,127.5,67.5,147.5,342.5,F,Open,Raw,SBD,,,
6,Jessica Woodward,AZ,60,58.9,30,132.5,55,152.5,340,F,Open,Raw,SBD,,,
7,Gloria Guardado,CA,60,59.8,27,130,67.5,140,337.5,F,Open,Raw,SBD,,,
1,Monica Morris,MO,67.5,66.3,44,147.5,102.5,180,430,F,Open,Raw,SBD,,,
2,Whitney McGhee,FL,67.5,65,29,142.5,72.5,212.5,427.5,F,Open,Raw,SBD,,,
3,Bailey Montoya,TX,67.5,64.2,27,152.5,80,190,422.5,F,Open,Raw,SBD,,,
4,Jessica Kratz,PA,67.5,62.7,45,137.5,85,188,410.5,F,Open,Raw,SBD,,,
5,Kylie Brewer,CA,67.5,67,21,150,92.5,160,402.5,F,Open,Raw,SBD,,,
6,Emily Savoie,LA,67.5,66.3,33,150,80,167.5,397.5,F,Open,Raw,SBD,,,
7,Cynthia Leu,CA,67.5,65.6,26,140,75,175,390,F,Open,Raw,SBD,,,
8,Alicia Frisbee,CA,67.5,65.4,34,145,82.5,155,382.5,F,Open,Raw,SBD,,,
9,Alexis Sicherman,FL,67.5,64.1,26,130,82.5,165,377.5,F,Open,Raw,SBD,,,
10,Isabelle Kootstra,CA,67.5,65.8,29,137.5,72.5,162.5,372.5,F,Open,Raw,SBD,,,
11,Payton Towns,NV,67.5,67.5,24,137.5,72.5,150,360,F,Open,Raw,SBD,,,
12,Christina Candelora,IL,67.5,66.9,34,135,65,157.5,357.5,F,Open,Raw,SBD,,,
13,Natasha Barnes,CA,67.5,66.2,35,125,72.5,150,347.5,F,Open,Raw,SBD,,,
1,Jodie Sajor,HI,75,74.8,47,195,135,207,537,F,Open,Raw,SBD,,,
2,Victoria Yarbrough,AZ,75,74.3,36,177.5,112.5,187.5,477.5,F,Open,Raw,SBD,,,
3,Ana Lopez,AZ,75,71.8,28,152.5,105,180,437.5,F,Open,Raw,SBD,,,
4,Abria Queen,AL,75,74.8,35,142.5,92.5,175,410,F,Open,Raw,SBD,,,
5,Hannah Ferris,IL,75,72.7,26,135,80,165,380,F,Open,Raw,SBD,,,
6,Betty Heriford,OR,75,68.2,67,100,90,143,333,F,Open,Raw,SBD,,,
1,Danielle Hayes,CO,82.5,77.3,27,162.5,90,187.5,440,F,Open,Raw,SBD,,,
2,Lyna Vo,CA,82.5,79.1,28,170,85,177.5,432.5,F,Open,Raw,SBD,,,
3,Amber Burns,KS,82.5,81.2,30,165,87.5,175,427.5,F,Open,Raw,SBD,,,
4,Alejandra Rice,WY,82.5,80,16,130,67.5,140,337.5,F,Open,Raw,SBD,,,
DQ,Tina Hargis,TX,82.5,79.1,49,,62.5,162.5,,F,Open,Raw,SBD,,,
DQ,Melanie Krygier,CA,82.5,82.1,34,,85,177.5,,F,Open,Raw,SBD,,,
1,Cierra Laxton,FL,90,88.1,24,147.5,110,215,472.5,F,Open,Raw,SBD,,,
2,Felicia Rojas,NE,90,86.4,43,182.5,85,182.5,450,F,Open,Raw,SBD,,,
1,Erin Palma,MT,90+,102,26,212.5,95,210,517.5,F,Open,Raw,SBD,,,
2,Kristina Thoman,AZ,90+,99.6,43,200,115,190,505,F,Open,Raw,SBD,,,
1,Precilla Navarro,AZ,56,55.9,35,120,60,122.5,302.5,F,Submaster,Raw,SBD,,,
1,Ayngelia Ara,WV,60,58.8,36,130,90,195,415,F,Submaster,Raw,SBD,,,
1,Victoria Primeau,FL,67.5,67,39,137.5,77.5,137.5,352.5,F,Submaster,Raw,SBD,,,
1,Victoria Yarbrough,AZ,75,74.3,36,177.5,112.5,187.5,477.5,F,Submaster,Raw,SBD,,,
2,Abria Queen,AL,75,74.8,35,142.5,92.5,175,410,F,Submaster,Raw,SBD,,,
1,Rocky Luedeker,AZ,44,42.7,63,37.5,37.5,77.5,152.5,F,Master 60-64,Raw,SBD,,,
1,Yolaunda Campbell,CA,52,52,40,145,80,175,400,F,Master 40-44,Raw,SBD,,,
1,Patti Coates,PA,56,54.9,48,117.5,57.5,145,320,F,Master 45-49,Raw,SBD,,,147.5
1,Magdalena Avendaño,CA,60,59.7,54,95,80,132.5,307.5,F,Master 50-54,Raw,SBD,,,
1,Monica Morris,MO,67.5,66.3,44,147.5,102.5,180,430,F,Master 40-44,Raw,SBD,,,
1,Jessica Kratz,PA,67.5,62.7,45,137.5,85,188,410.5,F,Master 45-49,Raw,SBD,,,
1,Peggy Brown,MO,67.5,67.3,53,130,70,150,350,F,Master 50-54,Raw,SBD,,,
2,Nannette Weaver,AZ,67.5,66,50,115,57.5,140,312.5,F,Master 50-54,Raw,SBD,,,
1,Kay Walden,KS,67.5,66.8,57,117.5,62.5,140,320,F,Master 55-59,Raw,SBD,,,
1,Jodie Sajor,HI,75,74.8,47,195,135,207,537,F,Master 45-49,Raw,SBD,,,
1,Betty Heriford,OR,75,68.2,67,100,90,143,333,F,Master 65-69,Raw,SBD,,,
DQ,Betty Schmidt,TX,82.5,79,41,132.5,95,,,F,Master 40-44,Raw,SBD,,,
DQ,Tina Hargis,TX,82.5,79.1,49,,62.5,162.5,,F,Master 45-49,Raw,SBD,,,
1,Vera Demers,WA,82.5,80.4,52,115,65,160,340,F,Master 50-54,Raw,SBD,,,
1,Felicia Rojas,NE,90,86.4,43,182.5,85,182.5,450,F,Master 40-44,Raw,SBD,,,
1,Kristina Thoman,AZ,90+,99.6,43,200,115,190,505,F,Master 40-44,Raw,SBD,,,
1,Kristie Guadiano Elliott,FL,90+,105.6,46,137.5,106,175,418.5,F,Master 45-49,Raw,SBD,,,
1,Christopher Castaneda,CA,56,54.6,23,157.5,97.5,202.5,457.5,M,Junior 20-23,Raw,SBD,,,
1,Justin Bonaparte,NV,60,57.2,22,170,97.5,212.5,480,M,Junior 20-23,Raw,SBD,,,
1,Shane Meehan,IN,67.5,65.9,14,115,70,155,340,M,Junior 13-15,Raw,SBD,,,
DQ,Navnit Singh,WA,67.5,67.1,19,165,,197.5,,M,Junior 18-19,Raw,SBD,,,
DQ,Cash Nicholson,WY,75,73.9,15,,,227.5,,M,Junior 13-15,Raw,SBD,,,
1,Noah Olander,IA,75,72.4,19,170,130,255,555,M,Junior 18-19,Raw,SBD,,,
2,Bryce Alig,TN,75,73.1,18,197.5,115,200,512.5,M,Junior 18-19,Raw,SBD,,,
3,Brandon Vincenzo,OH,75,74.6,18,192.5,112.5,207.5,512.5,M,Junior 18-19,Raw,SBD,,,
1,John Gutsmiedl,VA,75,74.1,21,202.5,127.5,272.5,602.5,M,Junior 20-23,Raw,SBD,,,
2,Austin Jones,MO,75,74.4,21,187.5,125,222.5,535,M,Junior 20-23,Raw,SBD,,,
1,Robert Barr,TX,82.5,80.3,18,215,140,260,615,M,Junior 18-19,Raw,SBD,,,
2,Tajinder Singh,WA,82.5,82,19,227.5,112.5,262.5,602.5,M,Junior 18-19,Raw,SBD,,,
1,Delaney Wallace,NY,82.5,81.9,23,255,175,290,720,M,Junior 20-23,Raw,SBD,,,
2,Charles Murray,IN,82.5,81.4,23,245,182.5,290,717.5,M,Junior 20-23,Raw,SBD,,,
3,Wesley Desrosier,AZ,82.5,80.7,20,225,145,245,615,M,Junior 20-23,Raw,SBD,,,
4,Nielsen Mariano,HI,82.5,81.8,21,207.5,125,227.5,560,M,Junior 20-23,Raw,SBD,,,
DQ,Luke Musselman,AZ,90,90,17,270,125,,,M,Junior 16-17,Raw,SBD,,,
1,Christian Williams #2,CA,90,88.6,19,262.5,155,312.5,730,M,Junior 18-19,Raw,SBD,,,
1,Collin Feck,IN,90,89.5,21,225,132.5,250,607.5,M,Junior 20-23,Raw,SBD,,,
DQ,Antonio Thomas,OH,90,87.2,22,,142.5,312.5,,M,Junior 20-23,Raw,SBD,,,
1,Elijah Vroman,MO,100,98,17,217.5,155,227.5,600,M,Junior 16-17,Raw,SBD,,,
1,Jesus Morales,UT,100,96.6,19,237.5,190,260,687.5,M,Junior 18-19,Raw,SBD,,,
1,Brandon Payne,OH,100,98.4,23,265,172.5,330,767.5,M,Junior 20-23,Raw,SBD,,,
2,Peter Higuera,FL,100,98,23,272.5,185,305,762.5,M,Junior 20-23,Raw,SBD,,,
3,Drew Mitchell,KS,100,98.2,23,252.5,177.5,282.5,712.5,M,Junior 20-23,Raw,SBD,,,
4,Louie Ortiguerra,CA,100,98.1,23,262.5,167.5,275,705,M,Junior 20-23,Raw,SBD,,,
5,Adam Kubes,AZ,100,98.8,22,252.5,167.5,282.5,702.5,M,Junior 20-23,Raw,SBD,,,
1,Kyle Alexander #1,CA,110,108.6,22,312.5,170,335,817.5,M,Junior 20-23,Raw,SBD,,,
2,Bohao Cheng,TX,110,109.4,23,292.5,152.5,250,695,M,Junior 20-23,Raw,SBD,,,
3,Michael Sommers,CA,110,109,22,252.5,160,265,677.5,M,Junior 20-23,Raw,SBD,,,
1,Nicholas Paradiso,CO,125,118.7,22,282.5,182.5,325,790,M,Junior 20-23,Raw,SBD,,,
2,Tony Amado,VA,125,114.1,20,235,162.5,282.5,680,M,Junior 20-23,Raw,SBD,,,
1,Marcus Sutphin,VA,140,137.4,19,270,142.5,295,707.5,M,Junior 18-19,Raw,SBD,,,
1,Jen Juico,CA,67.5,61.4,33,210,157.5,260,627.5,M,Open,Raw,SBD,,,
2,Austin Smith,CA,67.5,64.5,28,212.5,112.5,222.5,547.5,M,Open,Raw,SBD,,,
3,Matthew Smith #1,AZ,67.5,66.7,25,185,107.5,237.5,530,M,Open,Raw,SBD,,,
4,Kevin Dema-Ala,Guam,67.5,67,24,175,105,220,500,M,Open,Raw,SBD,,,
1,John Gutsmiedl,VA,75,74.1,21,202.5,127.5,272.5,602.5,M,Open,Raw,SBD,,,
1,Nicholas Austin,FL,82.5,82.5,29,260,185,330,775,M,Open,Raw,SBD,,,
2,Chad Penson,CA,82.5,81.4,26,265,197.5,300,762.5,M,Open,Raw,SBD,,,
3,Delaney Wallace,NY,82.5,81.9,23,255,175,290,720,M,Open,Raw,SBD,,,
4,Charles Murray,IN,82.5,81.4,23,245,182.5,290,717.5,M,Open,Raw,SBD,,,
5,Damon Bly,CA,82.5,81.6,29,237.5,142.5,287.5,667.5,M,Open,Raw,SBD,,,
6,Johnson Hem,CA,82.5,81.8,30,235,147.5,275,657.5,M,Open,Raw,SBD,,,
7,Gregory Costa,CA,82.5,82.4,24,227.5,150,272.5,650,M,Open,Raw,SBD,,,
8,Robert Barr,TX,82.5,80.3,18,215,140,260,615,M,Open,Raw,SBD,,,
9,Nielsen Mariano,HI,82.5,81.8,21,207.5,125,227.5,560,M,Open,Raw,SBD,,,
1,Adam Quinlan,TX,90,90,26,265,170,305,740,M,Open,Raw,SBD,,,
2,Nick Cambero,CA,90,88.5,30,277.5,182.5,277.5,737.5,M,Open,Raw,SBD,,,
3,Christian Williams #2,CA,90,88.6,19,262.5,155,312.5,730,M,Open,Raw,SBD,,,
4,James Grant #1,NV,90,88.4,28,260,175,275,710,M,Open,Raw,SBD,,,
5,Nicholas Whitney,NC,90,89.6,25,270,187.5,250,707.5,M,Open,Raw,SBD,,,
6,Lance Inman,NV,90,89,35,242.5,185,272.5,700,M,Open,Raw,SBD,,,
7,Robert Livingston,TX,90,89.6,35,247.5,155,282.5,685,M,Open,Raw,SBD,,,
8,Phillip Roberts,OH,90,89.2,29,225,175,257.5,657.5,M,Open,Raw,SBD,,,
DQ,Antonio Thomas,OH,90,87.2,22,,142.5,312.5,,M,Open,Raw,SBD,,,
DQ,Marquel Sims,TX,90,87.5,30,220,187.5,,,M,Open,Raw,SBD,,,
DQ,Charles Binkley,FL,90,88.8,28,,,,,M,Open,Raw,SBD,,,
DQ,Luke Musselman,AZ,90,90,17,270,125,,,M,Open,Raw,SBD,,,
1,Brandon Payne,OH,100,98.4,23,265,172.5,330,767.5,M,Open,Raw,SBD,,,
2,Peter Higuera,FL,100,98,23,272.5,185,305,762.5,M,Open,Raw,SBD,,,
3,Louie Ortiguerra,CA,100,98.1,23,262.5,167.5,275,705,M,Open,Raw,SBD,,,
4,Adam Kubes,AZ,100,98.8,22,252.5,167.5,282.5,702.5,M,Open,Raw,SBD,,,
1,Andy Rohner,CA,110,108.1,29,300,197.5,340,837.5,M,Open,Raw,SBD,,,
2,Kyle Alexander #1,CA,110,108.6,22,312.5,170,335,817.5,M,Open,Raw,SBD,,,
3,Joseph Kopito,NY,110,107.1,33,295,185,332.5,812.5,M,Open,Raw,SBD,,,
4,Dustin Kueck,TX,110,109.3,30,295,227.5,280,802.5,M,Open,Raw,SBD,,,
5,Nathan Brumback,NV,110,108.7,27,295,197.5,300,792.5,M,Open,Raw,SBD,,,
6,Simon Menard,CA,110,109.3,27,252.5,215,320,787.5,M,Open,Raw,SBD,,,
7,Matthew Ginion,CA,110,106.7,30,280,185,295,760,M,Open,Raw,SBD,,,
8,James Casterline,CO,110,109.3,38,285,185,280,750,M,Open,Raw,SBD,,,
9,Austin Schmidt,NE,110,108.8,24,267.5,192.5,275,735,M,Open,Raw,SBD,,,
10,Gabino Espinoza,AZ,110,104,29,267.5,157.5,287.5,712.5,M,Open,Raw,SBD,,,
11,Michael Sommers,CA,110,109,22,252.5,160,265,677.5,M,Open,Raw,SBD,,,
1,Nicholas Rowland,AZ,125,123.9,30,305,210,347.5,862.5,M,Open,Raw,SBD,,,
2,Shawn Campbell,CA,125,122.6,41,325,235,277.5,837.5,M,Open,Raw,SBD,,,
3,Mario Risso,NM,125,123.2,37,267.5,235,320,822.5,M,Open,Raw,SBD,,,
4,Justin McGregor,TX,125,121.1,32,285,200,312.5,797.5,M,Open,Raw,SBD,,,
5,Alexander Small,CA,125,116.3,24,302.5,192.5,297.5,792.5,M,Open,Raw,SBD,,,
6,Nicholas Paradiso,CO,125,118.7,22,282.5,182.5,325,790,M,Open,Raw,SBD,,,
7,Trevor Bebee,WA,125,114,30,287.5,190,300,777.5,M,Open,Raw,SBD,,,
8,Delon Knight,KS,125,122.6,25,290,182.5,300,772.5,M,Open,Raw,SBD,,,
9,Eric Kenitzer,ND,125,124.4,36,272.5,212.5,272.5,757.5,M,Open,Raw,SBD,,,
10,John Dignan,NV,125,121.6,50,272.5,147.5,240,660,M,Open,Raw,SBD,,,
1,Darrion Jones,CA,140,131.3,31,267.5,255,295,817.5,M,Open,Raw,SBD,,,
1,Jesse Kidd,WV,140+,148.5,35,285,200,275,760,M,Open,Raw,SBD,,,
1,James Casterline,CO,110,109.3,38,285,185,280,750,M,Submaster,Raw,SBD,,,
1,Mario Risso,NM,125,123.2,37,267.5,235,320,822.5,M,Submaster,Raw,SBD,,,
2,Eric Kenitzer,ND,125,124.4,36,272.5,212.5,272.5,757.5,M,Submaster,Raw,SBD,,,
1,Jesse Kidd,WV,140+,148.5,35,285,200,275,760,M,Submaster,Raw,SBD,,,
1,Lee Luedeker,AZ,67.5,66.3,67,97.5,87.5,150,335,M,Master 65-69,Raw,SBD,,,
1,Terrence Austin,WA,75,73.3,57,155,127.5,200,482.5,M,Master 55-59,Raw,SBD,,,
1,Michael Stewart,NM,75,74.4,71,142.5,100,197.5,440,M,Master 70-74,Raw,SBD,,,
1,Daniel Mahan,CA,82.5,82.5,52,213,137.5,265,615.5,M,Master 50-54,Raw,SBD,,,
1,Alan Levine,OR,82.5,80.2,69,137.5,100,187.5,425,M,Master 65-69,Raw,SBD,155.5,,
DQ,Howard Myers,CA,90,89.6,72,152.5,,,,M,Master 70-74,Raw,SBD,,,
1,Carlos Alfaro,CA,100,98.9,41,232.5,152.5,225,610,M,Master 40-44,Raw,SBD,,,
1,Dave Beaulieu,CA,100,97.4,60,205,145,220,570,M,Master 60-64,Raw,SBD,,,
DQ,Ricky Lahourcade,WA,110,107.7,43,75,200,,,M,Master 40-44,Raw,SBD,,,
1,Gregory Cotterell,CA,110,106.2,58,200,142.5,250,592.5,M,Master 55-59,Raw,SBD,,,
1,Stefano Magaddino,HI,110,102.7,69,160,142.5,187.5,490,M,Master 65-69,Raw,SBD,,,
1,DL Diltz,MN,110,105.6,70,132.5,120,205,457.5,M,Master 70-74,Raw,SBD,,,
1,Shawn Campbell,CA,125,122.6,41,325,235,277.5,837.5,M,Master 40-44,Raw,SBD,,,
DQ,Jason Lamb,HI,125,123.2,40,,170,230,,M,Master 40-44,Raw,SBD,,,
1,John Dignan,NV,125,121.6,50,272.5,147.5,240,660,M,Master 50-54,Raw,SBD,,,
1,Fredrick Martinez,CA,140,126.9,52,210,195,300,705,M,Master 50-54,Raw,SBD,,,
DQ,Ray Hixon,AZ,140,136.4,54,,,,,M,Master 50-54,Raw,SBD,,,
1,Mark Danyluk,CA,140+,154,52,85,227.5,227.5,540,M,Master 50-54,Raw,SBD,,,
1,John James,VA,140+,145.3,55,232.5,157.5,250,640,M,Master 55-59,Raw,SBD,,,
1,Samantha Bolletino,CA,60,59.8,20,153,70,145,368,F,Junior 20-23,Wraps,SBD,,,
1,Erica Wilson-Lee,LA,75,70.2,23,185,103,202.5,490.5,F,Junior 20-23,Wraps,SBD,,105,
1,April Shumaker,FL,48,47.9,52,125,97.5,152.5,375,F,Open,Wraps,SBD,,,
1,Nicole Carter,NV,60,59.6,29,185,82.5,185,452.5,F,Open,Wraps,SBD,,,
2,Samantha Bolletino,CA,60,59.8,20,153,70,145,368,F,Open,Wraps,SBD,,,
3,Tricia Downing,AZ,60,59.7,43,125,67.5,155,347.5,F,Open,Wraps,SBD,,,
1,Andrea White,PA,67.5,66.7,40,185,133,220,538,F,Open,Wraps,SBD,,,
2,Metissa Smith,TX,67.5,67.3,23,182.5,80,182.5,445,F,Open,Wraps,SBD,,,
3,Megan Casey,CO,67.5,66.7,34,172.5,92.5,175,440,F,Open,Wraps,SBD,,,
4,Lorene Berryman,CA,67.5,65.9,31,147.5,75,187.5,410,F,Open,Wraps,SBD,,,
1,Lee Whitaker,AZ,75,73.9,41,152.5,92.5,182.5,427.5,F,Open,Wraps,SBD,,,
2,Nicole Perez,AZ,75,74.5,32,152.5,70,165,387.5,F,Open,Wraps,SBD,,,
3,Alycia Rodriguez,AZ,75,74.8,26,142.5,70,157.5,370,F,Open,Wraps,SBD,,,
1,Amber Luci,OH,82.5,81.9,29,182.5,97.5,202.5,482.5,F,Open,Wraps,SBD,,,
1,Samantha Cantero,MD,90,89.8,24,170,82.5,192.5,445,F,Open,Wraps,SBD,,,
1,Cindy Gonzalez,CA,90+,118.1,39,210,112.5,195,517.5,F,Open,Wraps,SBD,,,
2,Makala Davis,AZ,90+,119,27,200,97.5,215,512.5,F,Open,Wraps,SBD,,,
1,Cindy Gonzalez,CA,90+,118.1,39,210,112.5,195,517.5,F,Submaster,Wraps,SBD,,,
1,April Shumaker,FL,48,47.9,52,125,97.5,152.5,375,F,Master 50-54,Wraps,SBD,,,
1,Tricia Downing,AZ,60,59.7,43,125,67.5,155,347.5,F,Master 40-44,Wraps,SBD,,,
1,Andrea White,PA,67.5,66.7,40,185,133,220,538,F,Master 40-44,Wraps,SBD,,,
1,Lee Whitaker,AZ,75,73.9,41,152.5,92.5,182.5,427.5,F,Master 40-44,Wraps,SBD,,,
1,Harrison Conner,NC,75,73.9,20,240,140,255,635,M,Junior 20-23,Wraps,SBD,,,
1,James Mapp,MD,82.5,81.6,23,265,170,310,745,M,Junior 20-23,Wraps,SBD,,,
DQ,Austin Hutzenbiler,ND,82.5,79.3,20,,,,,M,Junior 20-23,Wraps,SBD,,,
1,Jakob Bowers,WY,90,89,22,232.5,152.5,282.5,667.5,M,Junior 20-23,Wraps,SBD,,,
2,Photis Zographou,PA,90,89.3,21,252.5,145,260,657.5,M,Junior 20-23,Wraps,SBD,,,
1,Justin Tinsman,CA,110,105.2,22,290,162.5,305,757.5,M,Junior 20-23,Wraps,SBD,,,
1,Nathan Harris,CA,125,121.9,22,330,228,305,863,M,Junior 20-23,Wraps,SBD,,,
2,Johnathan Hangartner,CA,125,120.9,21,232.5,162.5,242.5,637.5,M,Junior 20-23,Wraps,SBD,,,
1,Norman Black Jr,CA,140,132.3,21,285,182.5,257.5,725,M,Junior 20-23,Wraps,SBD,,,
DQ,David Van,CA,56,55.3,32,,,,,M,Open,Wraps,SBD,,,
1,Richard Navarra,CA,67.5,66.5,27,242.5,150,250,642.5,M,Open,Wraps,SBD,,,
2,Matthew Rutledge,CO,67.5,65.9,32,190,130,202.5,522.5,M,Open,Wraps,SBD,,,
1,Harrison Conner,NC,75,73.9,20,240,140,255,635,M,Open,Wraps,SBD,,,
2,Ryan Hudson,OR,75,74.5,39,212.5,122.5,210,545,M,Open,Wraps,SBD,,,
1,James Mapp,MD,82.5,81.6,23,265,170,310,745,M,Open,Wraps,SBD,,,
2,Dillon Eckerfield,CA,82.5,81.7,26,265,170,265,700,M,Open,Wraps,SBD,,,
3,Nathaniel Ruiz,CA,82.5,82,27,245,162.5,260,667.5,M,Open,Wraps,SBD,,,
4,Joseph Rodrigues,CA,82.5,78.3,38,185,145,230,560,M,Open,Wraps,SBD,,,
DQ,Nicholas Cruz,NY,82.5,81.5,26,,165,272.5,,M,Open,Wraps,SBD,,,
DQ,Travis P. Rogers,MD,82.5,81.7,28,290,175,,,M,Open,Wraps,SBD,,,
1,Casey Powell,OK,90,88.9,25,285,165,287.5,737.5,M,Open,Wraps,SBD,,,
2,John Addison,CO,90,89.5,32,232.5,167.5,295,695,M,Open,Wraps,SBD,,,
3,Alex Skinner,VA,90,89.1,27,245,170,272.5,687.5,M,Open,Wraps,SBD,,,
4,Photis Zographou,PA,90,89.3,21,252.5,145,260,657.5,M,Open,Wraps,SBD,,,
DQ,Eric Kratz #1,PA,90,89.7,43,232.5,,,,M,Open,Wraps,SBD,,,
1,Harrison Stickelman,OH,100,96.6,25,317.5,180,335,832.5,M,Open,Wraps,SBD,,,
2,Jonathan Busby,AR,100,99.5,33,290,195,290,775,M,Open,Wraps,SBD,,,
3,Michael Coe,IN,100,99.2,48,290,167.5,312.5,770,M,Open,Wraps,SBD,,,
4,Sean Reisner,NV,100,98.2,30,265,152.5,277.5,695,M,Open,Wraps,SBD,,,
5,James Grinstead,CA,100,99.4,29,265,162.5,252.5,680,M,Open,Wraps,SBD,,,
DQ,David Stensland,ND,100,98,33,,,,,M,Open,Wraps,SBD,,,
DQ,Michael Armendariz,TX,100,99.4,26,320,,,,M,Open,Wraps,SBD,,,
1,Elliott Shults,NV,110,102,31,322.5,195,320,837.5,M,Open,Wraps,SBD,,,
2,Justin Tinsman,CA,110,105.2,22,290,162.5,305,757.5,M,Open,Wraps,SBD,,,
3,Manny Torres,CA,110,108,25,282.5,180,292.5,755,M,Open,Wraps,SBD,,,
DQ,Ismael Hernandez,TX,110,105.3,38,,,,,M,Open,Wraps,SBD,,,
DQ,John Kelley,CO,110,105.3,37,,205,,,M,Open,Wraps,SBD,,,
1,Lu Shalili,CA,125,117.6,25,365,212.5,337.5,915,M,Open,Wraps,SBD,,,
2,Lazaro Rodriguez Jr,CA,125,121.5,28,337.5,195,350,882.5,M,Open,Wraps,SBD,,,
3,Brandon Kibler,CA,125,119,26,350,192.5,335,877.5,M,Open,Wraps,SBD,,,
4,Nathan Harris,CA,125,121.9,22,330,228,305,863,M,Open,Wraps,SBD,,,
5,Steven Rodriguez,CA,125,117.3,32,255,200,290,745,M,Open,Wraps,SBD,,,
6,David Clem,ND,125,114.9,46,302.5,160,272.5,735,M,Open,Wraps,SBD,,,
1,John Cage,MO,140,135.8,26,320,185,310,815,M,Open,Wraps,SBD,,,
1,A.C. Toriz,CA,140+,164.5,28,365,230,320,915,M,Open,Wraps,SBD,,,
2,Joshua Luis,NJ,140+,149.9,33,337.5,235,305,877.5,M,Open,Wraps,SBD,,,
3,Ethan Gonzalez,AZ,140+,165.4,35,340,212.5,292.5,845,M,Open,Wraps,SBD,,,
1,Ryan Hudson,OR,75,74.5,39,212.5,122.5,210,545,M,Submaster,Wraps,SBD,,,
1,Joseph Rodrigues,CA,82.5,78.3,38,185,145,230,560,M,Submaster,Wraps,SBD,,,
DQ,Ismael Hernandez,TX,110,105.3,38,,,,,M,Submaster,Wraps,SBD,,,
DQ,John Kelley,CO,110,105.3,37,,205,,,M,Submaster,Wraps,SBD,,,
1,Josh Maish,CA,125,123.8,37,262.5,175,285,722.5,M,Submaster,Wraps,SBD,,,
1,Paul Honda,WA,75,74.1,55,170,95,212.5,477.5,M,Master 55-59,Wraps,SBD,,,
1,Dan Martin,NV,82.5,81.1,78,155.5,90.5,175.5,421.5,M,Master 75-79,Wraps,SBD,,,
DQ,Eric Kratz #1,PA,90,89.7,43,232.5,,,,M,Master 40-44,Wraps,SBD,,,
DQ,Tracy Russell,OK,90,89.1,49,,162.5,220,,M,Master 45-49,Wraps,SBD,,,
1,Michael Coe,IN,100,99.2,48,290,167.5,312.5,770,M,Master 45-49,Wraps,SBD,,,
1,Jimmy Flores,CA,110,104.9,50,190,183.5,290,663.5,M,Master 50-54,Wraps,SBD,,,
1,John Ohara,GA,110,103.2,55,205,152.5,227.5,585,M,Master 55-59,Wraps,SBD,,,
1,Donald Williams,NM,125,117.3,44,200,150,197.5,547.5,M,Master 40-44,Wraps,SBD,,,
1,David Clem,ND,125,114.9,46,302.5,160,272.5,735,M,Master 45-49,Wraps,SBD,,,
1,Randy Abendroth,TX,125,123.4,62,225,155,257.5,637.5,M,Master 60-64,Wraps,SBD,,,
2,Frank Westall,CA,125,115.9,62,192.5,110,217.5,520,M,Master 60-64,Wraps,SBD,,,
1,Thomas Matlock,AZ,125,115.8,66,185,100,207.5,492.5,M,Master 65-69,Wraps,SBD,,,
1,Stephanie Stephens,NV,82.5,77,38,192.5,120,182.5,495,F,Open,Wraps,SBD,,,
2,Malinda Barnes,AZ,82.5,79.7,39,175,110,192.5,477.5,F,Open,Wraps,SBD,,,
1,Malinda Barnes,AZ,82.5,79.7,39,175,110,192.5,477.5,F,Submaster,Wraps,SBD,,,
1,Carlos Ramirez,CA,90,88.4,21,270,187.5,245,702.5,M,Junior 20-23,Single-ply,SBD,,,
DQ,Seth Lee,CO,90,88.2,45,,,,,M,Open,Single-ply,SBD,,,
DQ,Jose Ramires,NV,125,123.9,27,,,,,M,Open,Single-ply,SBD,,,
1,Kamuela Wassman,HI,140,135.8,30,332.5,240,305,877.5,M,Open,Single-ply,SBD,,,
DQ,Arthur Fu,CA,82.5,80.5,66,192.5,,,,M,Master 65-69,Single-ply,SBD,,,
DQ,Seth Lee,CO,90,88.2,45,,,,,M,Master 45-49,Single-ply,SBD,,,
1,Charles de Tranaltes,AZ,90,88.2,54,210,162.5,255,627.5,M,Master 50-54,Single-ply,SBD,,,
1,Parry Markle,ID,100,96.3,59,237.5,207.5,272.5,717.5,M,Master 55-59,Single-ply,SBD,,,
1,Pete Wilson,CA,90,90,81,132.5,125,137.5,395,M,Master,Single-ply,SBD,,,
1,Betty Heriford,OR,75,68.2,67,,90,,90,F,Open,Raw,B,,,
1,Kumiko-Katie Moore,NV,56,54.1,56,,70,,70,F,Master 55-59,Raw,B,,,
1,Christina Leonatti,CO,60,58.1,50,,75,,75,F,Master 50-54,Raw,B,,,
1,Jessica Kratz,PA,67.5,62.7,45,,85,,85,F,Master 45-49,Raw,B,,,
1,Betty Heriford,OR,75,68.2,67,,90,,90,F,Master 65-69,Raw,B,,,
1,Nicki I'Anson,CA,90,85.6,52,,97.5,,97.5,F,Master 50-54,Raw,B,,,
1,Ispandiyar Kairzhan,CA,67.5,62.5,21,,125,,125,M,Junior 20-23,Raw,B,,,
1,Jonathan Janbakhsh,CA,67.5,66.4,29,,137.5,,137.5,M,Open,Raw,B,,,
2,Ispandiyar Kairzhan,CA,67.5,62.5,21,,125,,125,M,Open,Raw,B,,,
1,Ruben Castro,WA,75,74.2,36,,192.5,,192.5,M,Open,Raw,B,,,
1,Michael Kimura,HI,82.5,81,50,,172.5,,172.5,M,Open,Raw,B,,,
1,Phillip Roberts,OH,90,89.2,29,,175,,175,M,Open,Raw,B,,,
1,Michael Harvey,CA,100,99.8,39,,205,,205,M,Open,Raw,B,,,
2,John Cambra Jr,HI,100,99.2,42,,177.5,,177.5,M,Open,Raw,B,,,
1,John Kelley,CO,110,105.3,37,,205,,205,M,Open,Raw,B,,,
2,Cale Gammon,LA,110,106.7,29,,190,,190,M,Open,Raw,B,,,
1,Carlos Rojas,NE,125,124.8,46,,265,,265,M,Open,Raw,B,,,
2,Kevin Triplett,CO,125,119.6,50,,227.5,,227.5,M,Open,Raw,B,,,
1,LeRoy Walker,TX,140+,169.1,40,,260,,260,M,Open,Raw,B,,,
2,Aaron Morman,OH,140+,154.1,36,,237.5,,237.5,M,Open,Raw,B,,,
1,Ruben Castro,WA,75,74.2,36,,192.5,,192.5,M,Submaster,Raw,B,,,
1,Michael Harvey,CA,100,99.8,39,,205,,205,M,Submaster,Raw,B,,,
1,Aaron Morman,OH,140+,154.1,36,,237.5,,237.5,M,Submaster,Raw,B,,,
1,James Seifert,CA,67.5,67.1,54,,120,,120,M,Master 50-54,Raw,B,,,
1,Scott Bills,TX,75,74.9,45,,145,,145,M,Master 45-49,Raw,B,,,
1,Terrence Austin,WA,75,73.3,57,,127.5,,127.5,M,Master 55-59,Raw,B,,,
1,George Skinner,KY,82.5,79.4,46,,155,,155,M,Master 45-49,Raw,B,,,
1,Michael Kimura,HI,82.5,81,50,,172.5,,172.5,M,Master 50-54,Raw,B,,,
1,Placido Gomez,NM,82.5,81,67,,117.5,,117.5,M,Master 65-69,Raw,B,,,
DQ,Eric Kratz #1,PA,90,89.7,43,,,,,M,Master 40-44,Raw,B,,,
1,John Cambra Jr,HI,100,99.2,42,,177.5,,177.5,M,Master 40-44,Raw,B,,,
1,Ron Pagal,CA,100,99.5,72,,127.5,,127.5,M,Master 70-74,Raw,B,,,
1,Terence Plotsky,CA,100,92.5,77,,82.5,,82.5,M,Master 75-79,Raw,B,,,
1,Carlos Rojas,NE,125,124.8,46,,265,,265,M,Master 45-49,Raw,B,,,
1,Kevin Triplett,CO,125,119.6,50,,227.5,,227.5,M,Master 50-54,Raw,B,,,
1,Mark Danyluk,CA,140+,154,52,,227.5,,227.5,M,Master 50-54,Raw,B,,,
1,Kumiko-Katie Moore,NV,56,54.1,56,,70,,70,F,Master 55-59,Single-ply,B,,,
1,Koube Ngaaje,MD,48,47.1,33,,,95,95,F,Open,Raw,D,,,
1,Betty Heriford,OR,75,68.2,67,,,143,143,F,Open,Raw,D,,,
1,Cierra Laxton,FL,90,88.1,24,,,215,215,F,Open,Raw,D,,,
1,Lori Christ,NM,60,58.4,61,,,102.5,102.5,F,Master 60-64,Raw,D,,,
1,Jessica Kratz,PA,67.5,62.7,45,,,188,188,F,Master 45-49,Raw,D,,,
1,Betty Heriford,OR,75,68.2,67,,,143,143,F,Master 65-69,Raw,D,,,
1,Nicki I'Anson,CA,90,85.6,52,,,185,185,F,Master 50-54,Raw,D,,,
1,Ispandiyar Kairzhan,CA,67.5,62.5,21,,,200,200,M,Junior 20-23,Raw,D,,,
1,Cash Nicholson,WY,75,73.9,15,,,227.5,227.5,M,Junior 13-15,Raw,D,,,
1,Brandon Vincenzo,OH,75,74.6,18,,,207.5,207.5,M,Junior 18-19,Raw,D,,,
1,Maxwell Belshe,CO,82.5,81.7,17,,,227.5,227.5,M,Junior 16-17,Raw,D,,,
1,Ispandiyar Kairzhan,CA,67.5,62.5,21,,,200,200,M,Open,Raw,D,,,
1,Nicholas Austin,FL,82.5,82.5,29,,,330,330,M,Open,Raw,D,,,
1,William Leahy,CO,100,98.4,26,,,272.5,272.5,M,Open,Raw,D,,,
1,Simon Menard,CA,110,109.3,27,,,320,320,M,Open,Raw,D,,,
1,Kevin Meskew,CA,67.5,67.1,62,,,160,160,M,Master 60-64,Raw,D,,,
1,Scott Bills,TX,75,74.9,45,,,222.5,222.5,M,Master 45-49,Raw,D,,,
1,Michael Heisman,CA,82.5,81.1,67,,,175,175,M,Master 65-69,Raw,D,,,
DQ,Eric Kratz #1,PA,90,89.7,43,,,,,M,Master 40-44,Raw,D,,,
DQ,Howard Myers,CA,90,89.6,72,,,,,M,Master 70-74,Raw,D,,,
1,Ron Pagal,CA,100,99.5,72,,,160,160,M,Master 70-74,Raw,D,,,
1,Terence Plotsky,CA,100,92.5,77,,,132.5,132.5,M,Master 75-79,Raw,D,,,137.5
1,Frank Westall,CA,125,115.9,62,,,217.5,217.5,M,Master 60-64,Raw,D,,,
1,Thomas Matlock,AZ,125,115.8,66,,,207.5,207.5,M,Master 65-69,Raw,D,,,
1,Mark Danyluk,CA,140+,154,52,,,227.5,227.5,M,Master 50-54,Raw,D,,,
1,Tim Sparkes,AZ,110,102.5,50,,,292.5,292.5,M,Open,Single-ply,D,,,
1,Tim Sparkes,AZ,110,102.5,50,,,292.5,292.5,M,Master 50-54,Single-ply,D,,,
