Place,WeightClassKg,Name,Equipment,Team,BodyweightKg,Squat1Kg,Squat2Kg,Squat3Kg,Best3SquatKg,Bench1Kg,Bench2Kg,Bench3Kg,Best3BenchKg,Deadlift1Kg,Deadlift2Kg,Deadlift3Kg,Best3DeadliftKg,TotalKg,Division,Sex,Event
1,57,Nicoline Giller,Raw,Bergen SK,56.80,80,85,90,90.0,55,57.5,60,60.0,100,112.5,120,120.0,270,Open,F,SBD
1,63,Sara Havnes Løvaas,Raw,Bergen SK,57.90,90,100,105,105.0,55,57.5,-60,57.5,100,105,112.5,112.5,275,Open,F,SBD
1,72,Gøril Espedal,Raw,Bergen SK,71.50,90,110,115,115.0,55,57.5,60,60.0,120,130,140,140.0,315,Open,F,SBD
1,74,Einar Naveen Møen,Raw,Bergen SK,74.00,80,-90,100,100.0,-60,65,-70,65.0,100,112.5,-120,112.5,277.5,Teen 14-18,M,SBD
1,83,Martinn Vik Johansen,Raw,Bergen SK,79.60,120,130,150,150.0,80,85,90,90.0,170,180,195,195.0,435,Teen 14-18,M,SBD
1,93,Bendik Skønberg,Raw,Bergen SK,90.50,110,120,130,130.0,60,70,75,75.0,130,150,162.5,162.5,367.5,Teen 14-18,M,SBD
1,93,Joachim Amundsen Bognøy,Raw,Bergen SK,86.20,130,140,150,150.0,85,,,85.0,170,180,190,190.0,425,Open,M,SBD
1,120,Robert Øren,Raw,Bergen SK,110.80,150,165,172.5,172.5,130,135,137.5,137.5,185,195,205,205.0,515,Master 60-69,M,SBD
