Place,WeightClassKg,Name,Equipment,Team,BodyweightKg,Squat1Kg,Squat2Kg,Squat3Kg,Best3SquatKg,Bench1Kg,Bench2Kg,Bench3Kg,Best3BenchKg,Deadlift1Kg,Deadlift2Kg,Deadlift3Kg,Best3DeadliftKg,TotalKg,Division,Sex,Event
1,72,Beate Svendsen,Raw,Haugaland AK,67.70,107.5,112.5,117.5,117.5,62.5,67.5,70,70.0,117.5,122.5,127.5,127.5,315,Teen 14-18,F,SBD
1,84+,Susanne Landsvik,Raw,Sotra Kraftsportklubb,88.10,80,90,100,100.0,40,-42.5,45,45.0,100,105,115,115.0,260,Junior 19-23,F,SBD
1,63,Hege Opheim Kaland,Raw,Sotra Kraftsportklubb,62.30,110,-115,115,115.0,52.5,57.5,60,60.0,120,130,135,135.0,310,Open,F,SBD
1,72,Renathe Hæggernes Rong,Raw,Sotra Kraftsportklubb,67.80,105,110,115,115.0,65,70,75,75.0,105,115,125,125.0,315,Open,F,SBD
1,84,Jeanette A. Fagerlid,Raw,Bjørgvin SK,79.80,75,80,85,85.0,67.5,72.5,77.5,77.5,110,115,-120,115.0,277.5,Open,F,SBD
2,84,Alexandra Johanne Rognvik Enge,Raw,Sotra Kraftsportklubb,74.80,,,,,45,50,55,55.0,,,,,55,Open,F,B
1,84+,Karen Gyda Skålvoll,Raw,Bjørgvin SK,100.90,75,80,85,85.0,50,55,-60,55.0,100,105,-110,105.0,245,Master 40-49,F,SBD
1,93,Kristian Hansen Bruvik,Raw,Odin SK,92.70,187.5,200,210,210.0,107.5,115,-120,115.0,205,222.5,,222.5,547.5,Open,M,SBD
1,105,Per Heimseth,Raw,Florø TIF,96.50,170,180,190,190.0,120,125,,125.0,210,235,240,240.0,555,Master 40-49,M,SBD
